/Users/sarahsampan/creditcard-service/src/main/java/com/compareglobal/service/creditcard/hateoas/event/SingleResourceRetrievedEvent.java
/Users/sarahsampan/creditcard-service/src/main/java/com/compareglobal/service/creditcard/hateoas/event/ResourceCreatedEvent.java
/Users/sarahsampan/creditcard-service/src/main/java/com/compareglobal/service/creditcard/util/RestPreconditions.java
/Users/sarahsampan/creditcard-service/src/main/java/com/compareglobal/service/creditcard/domain/OtherFeeMapper.java
/Users/sarahsampan/creditcard-service/src/main/java/com/compareglobal/service/creditcard/domain/BenefitMapper.java
/Users/sarahsampan/creditcard-service/src/main/java/com/compareglobal/service/creditcard/model/Order.java
/Users/sarahsampan/creditcard-service/src/main/java/com/compareglobal/service/creditcard/hateoas/listener/PaginatedResultsRetrievedDiscoverabilityListener.java
/Users/sarahsampan/creditcard-service/src/main/java/com/compareglobal/service/creditcard/hateoas/listener/ResourceCreatedDiscoverabilityListener.java
/Users/sarahsampan/creditcard-service/src/main/java/com/compareglobal/service/creditcard/dao/FeeDAO.java
/Users/sarahsampan/creditcard-service/src/main/java/com/compareglobal/service/creditcard/model/Compare.java
/Users/sarahsampan/creditcard-service/src/main/java/com/compareglobal/service/creditcard/domain/PurchaseMapper.java
/Users/sarahsampan/creditcard-service/src/main/java/com/compareglobal/service/creditcard/controller/CreditCardController.java
/Users/sarahsampan/creditcard-service/src/main/java/com/compareglobal/service/creditcard/domain/FraudRepository.java
/Users/sarahsampan/creditcard-service/src/main/java/com/compareglobal/service/creditcard/model/FilterCode.java
/Users/sarahsampan/creditcard-service/src/main/java/com/compareglobal/service/creditcard/dao/AnnualFeeDAOImpl.java
/Users/sarahsampan/creditcard-service/src/main/java/com/compareglobal/service/creditcard/dao/BalanceXferDAOImpl.java
/Users/sarahsampan/creditcard-service/src/main/java/com/compareglobal/service/creditcard/domain/AnnualFeeMapper.java
/Users/sarahsampan/creditcard-service/src/main/java/com/compareglobal/service/creditcard/model/Link.java
/Users/sarahsampan/creditcard-service/src/main/java/com/compareglobal/service/creditcard/controller/FraudController.java
/Users/sarahsampan/creditcard-service/src/main/java/com/compareglobal/service/creditcard/dao/LinkDAOImpl.java
/Users/sarahsampan/creditcard-service/src/main/java/com/compareglobal/service/creditcard/dao/InterestDAO.java
/Users/sarahsampan/creditcard-service/src/main/java/com/compareglobal/service/creditcard/model/CashAdvance.java
/Users/sarahsampan/creditcard-service/src/main/java/com/compareglobal/service/creditcard/model/RuleParam.java
/Users/sarahsampan/creditcard-service/src/main/java/com/compareglobal/service/creditcard/dao/CreditCardDAO.java
/Users/sarahsampan/creditcard-service/src/main/java/com/compareglobal/service/creditcard/dao/AirMileDAOImpl.java
/Users/sarahsampan/creditcard-service/src/main/java/com/compareglobal/service/creditcard/model/Image.java
/Users/sarahsampan/creditcard-service/src/main/java/com/compareglobal/service/creditcard/domain/RewardMapper.java
/Users/sarahsampan/creditcard-service/src/main/java/com/compareglobal/service/creditcard/domain/InterestMapper.java
/Users/sarahsampan/creditcard-service/src/main/java/com/compareglobal/service/creditcard/dao/InterestDAOImpl.java
/Users/sarahsampan/creditcard-service/src/main/java/com/compareglobal/service/creditcard/domain/FeeMapper.java
/Users/sarahsampan/creditcard-service/src/main/java/com/compareglobal/service/creditcard/dao/LinkDAO.java
/Users/sarahsampan/creditcard-service/src/main/java/com/compareglobal/service/creditcard/dao/CreditCardDAOImpl.java
/Users/sarahsampan/creditcard-service/src/main/java/com/compareglobal/service/creditcard/model/BalanceXfer.java
/Users/sarahsampan/creditcard-service/src/main/java/com/compareglobal/service/creditcard/dao/CashAdvanceDAOImpl.java
/Users/sarahsampan/creditcard-service/src/main/java/com/compareglobal/service/creditcard/model/Eligibility.java
/Users/sarahsampan/creditcard-service/src/main/java/com/compareglobal/service/creditcard/util/LinkUtil.java
/Users/sarahsampan/creditcard-service/src/main/java/com/compareglobal/service/creditcard/domain/CashAdvanceMapper.java
/Users/sarahsampan/creditcard-service/src/main/java/com/compareglobal/service/creditcard/dao/BenefitDAO.java
/Users/sarahsampan/creditcard-service/src/main/java/com/compareglobal/service/creditcard/controller/ProductController.java
/Users/sarahsampan/creditcard-service/src/main/java/com/compareglobal/service/creditcard/domain/CreditCardMapper.java
/Users/sarahsampan/creditcard-service/src/main/java/com/compareglobal/service/creditcard/CreditCardApplication.java
/Users/sarahsampan/creditcard-service/src/main/java/com/compareglobal/service/creditcard/dao/EligibilityDAO.java
/Users/sarahsampan/creditcard-service/src/main/java/com/compareglobal/service/creditcard/dao/AirMileDAO.java
/Users/sarahsampan/creditcard-service/src/main/java/com/compareglobal/service/creditcard/model/Greeting.java
/Users/sarahsampan/creditcard-service/src/main/java/com/compareglobal/service/creditcard/model/Errors.java
/Users/sarahsampan/creditcard-service/src/main/java/com/compareglobal/service/creditcard/service/FraudService.java
/Users/sarahsampan/creditcard-service/src/main/java/com/compareglobal/service/creditcard/dao/CashAdvanceDAO.java
/Users/sarahsampan/creditcard-service/src/main/java/com/compareglobal/service/creditcard/controller/ExceptionHandlerController.java
/Users/sarahsampan/creditcard-service/src/main/java/com/compareglobal/service/creditcard/dao/FeeDAOImpl.java
/Users/sarahsampan/creditcard-service/src/main/java/com/compareglobal/service/creditcard/dao/BenefitDAOImpl.java
/Users/sarahsampan/creditcard-service/src/main/java/com/compareglobal/service/creditcard/controller/RootController.java
/Users/sarahsampan/creditcard-service/src/main/java/com/compareglobal/service/creditcard/domain/EligibilityMapper.java
/Users/sarahsampan/creditcard-service/src/main/java/com/compareglobal/service/creditcard/model/CreditCard.java
/Users/sarahsampan/creditcard-service/src/main/java/com/compareglobal/service/creditcard/dao/OtherFeeDAO.java
/Users/sarahsampan/creditcard-service/src/main/java/com/compareglobal/service/creditcard/model/Seller.java
/Users/sarahsampan/creditcard-service/src/main/java/com/compareglobal/service/creditcard/dao/EligibilityDAOImpl.java
/Users/sarahsampan/creditcard-service/src/main/java/com/compareglobal/service/creditcard/exception/MyResourceNotFoundException.java
/Users/sarahsampan/creditcard-service/src/main/java/com/compareglobal/service/creditcard/dao/PurchaseDAOImpl.java
/Users/sarahsampan/creditcard-service/src/main/java/com/compareglobal/service/creditcard/dao/BalanceXferDAO.java
/Users/sarahsampan/creditcard-service/src/main/java/com/compareglobal/service/creditcard/dao/ImageDAOImpl.java
/Users/sarahsampan/creditcard-service/src/main/java/com/compareglobal/service/creditcard/model/Address.java
/Users/sarahsampan/creditcard-service/src/main/java/com/compareglobal/service/creditcard/dao/RewardDAO.java
/Users/sarahsampan/creditcard-service/src/main/java/com/compareglobal/service/creditcard/drools/config/SwaggerConfig.java
/Users/sarahsampan/creditcard-service/src/main/java/com/compareglobal/service/creditcard/model/Fee.java
/Users/sarahsampan/creditcard-service/src/main/java/com/compareglobal/service/creditcard/model/OrderItem.java
/Users/sarahsampan/creditcard-service/src/main/java/com/compareglobal/service/creditcard/domain/CreditCardRepository.java
/Users/sarahsampan/creditcard-service/src/main/java/com/compareglobal/service/creditcard/domain/LinkMapper.java
/Users/sarahsampan/creditcard-service/src/main/java/com/compareglobal/service/creditcard/util/CreditCardUtil.java
/Users/sarahsampan/creditcard-service/src/main/java/com/compareglobal/service/creditcard/model/CreditCardResult.java
/Users/sarahsampan/creditcard-service/src/main/java/com/compareglobal/service/creditcard/service/CreditCardService.java
/Users/sarahsampan/creditcard-service/src/main/java/com/compareglobal/service/creditcard/dao/OtherFeeDAOImpl.java
/Users/sarahsampan/creditcard-service/src/main/java/com/compareglobal/service/creditcard/hateoas/listener/SingleResourceRetrievedDiscoverabilityListener.java
/Users/sarahsampan/creditcard-service/src/main/java/com/compareglobal/service/creditcard/model/Interest.java
/Users/sarahsampan/creditcard-service/src/main/java/com/compareglobal/service/creditcard/dao/AnnualFeeDAO.java
/Users/sarahsampan/creditcard-service/src/main/java/com/compareglobal/service/creditcard/domain/ImageMapper.java
/Users/sarahsampan/creditcard-service/src/main/java/com/compareglobal/service/creditcard/model/Reward.java
/Users/sarahsampan/creditcard-service/src/main/java/com/compareglobal/service/creditcard/model/Blacklist.java
/Users/sarahsampan/creditcard-service/src/main/java/com/compareglobal/service/creditcard/dao/PurchaseDAO.java
/Users/sarahsampan/creditcard-service/src/main/java/com/compareglobal/service/creditcard/domain/AirMileMapper.java
/Users/sarahsampan/creditcard-service/src/main/java/com/compareglobal/service/creditcard/model/Form.java
/Users/sarahsampan/creditcard-service/src/main/java/com/compareglobal/service/creditcard/hateoas/event/PaginatedResultsRetrievedEvent.java
/Users/sarahsampan/creditcard-service/src/main/java/com/compareglobal/service/creditcard/model/OtherFee.java
/Users/sarahsampan/creditcard-service/src/main/java/com/compareglobal/service/creditcard/dao/ImageDAO.java
/Users/sarahsampan/creditcard-service/src/main/java/com/compareglobal/service/creditcard/model/AnnualFee.java
/Users/sarahsampan/creditcard-service/src/main/java/com/compareglobal/service/creditcard/model/Purchase.java
/Users/sarahsampan/creditcard-service/src/main/java/com/compareglobal/service/creditcard/model/AirMile.java
/Users/sarahsampan/creditcard-service/src/main/java/com/compareglobal/service/creditcard/model/Benefit.java
/Users/sarahsampan/creditcard-service/src/main/java/com/compareglobal/service/creditcard/domain/BalanceXferMapper.java
/Users/sarahsampan/creditcard-service/src/main/java/com/compareglobal/service/creditcard/dao/RewardDAOImpl.java
/Users/sarahsampan/creditcard-service/src/main/java/com/compareglobal/service/creditcard/drools/config/DroolsConfig.java
